DEBUG 2017-04-14 11:20:32,854 [1    ] Abp.Modules.AbpModuleManager             - Loading Abp modules...
DEBUG 2017-04-14 11:20:32,868 [1    ] Abp.Modules.AbpModuleManager             - Found 15 ABP modules in total.
DEBUG 2017-04-14 11:20:32,873 [1    ] Abp.Modules.AbpModuleManager             - Loaded module: JJ.ProjectManagement.Web.ProjectManagementWebModule, JJ.ProjectManagement.Web, Version=1.0.0.0, Culture=neutral, PublicKeyToken=null
DEBUG 2017-04-14 11:20:32,875 [1    ] Abp.Modules.AbpModuleManager             - Loaded module: JJ.ProjectManagement.ProjectManagementDataModule, JJ.ProjectManagement.EntityFramework, Version=1.0.0.0, Culture=neutral, PublicKeyToken=null
DEBUG 2017-04-14 11:20:32,875 [1    ] Abp.Modules.AbpModuleManager             - Loaded module: Abp.Zero.EntityFramework.AbpZeroEntityFrameworkModule, Abp.Zero.EntityFramework, Version=1.3.1.0, Culture=neutral, PublicKeyToken=null
DEBUG 2017-04-14 11:20:32,875 [1    ] Abp.Modules.AbpModuleManager             - Loaded module: Abp.Zero.AbpZeroCoreModule, Abp.Zero, Version=1.3.1.0, Culture=neutral, PublicKeyToken=null
DEBUG 2017-04-14 11:20:32,876 [1    ] Abp.Modules.AbpModuleManager             - Loaded module: Abp.AbpKernelModule, Abp, Version=1.3.1.0, Culture=neutral, PublicKeyToken=null
DEBUG 2017-04-14 11:20:32,876 [1    ] Abp.Modules.AbpModuleManager             - Loaded module: Abp.EntityFramework.AbpEntityFrameworkModule, Abp.EntityFramework, Version=1.3.1.0, Culture=neutral, PublicKeyToken=null
DEBUG 2017-04-14 11:20:32,876 [1    ] Abp.Modules.AbpModuleManager             - Loaded module: JJ.ProjectManagement.ProjectManagementCoreModule, JJ.ProjectManagement.Core, Version=1.0.0.0, Culture=neutral, PublicKeyToken=null
DEBUG 2017-04-14 11:20:32,877 [1    ] Abp.Modules.AbpModuleManager             - Loaded module: JJ.ProjectManagement.ProjectManagementApplicationModule, JJ.ProjectManagement.Application, Version=1.0.0.0, Culture=neutral, PublicKeyToken=null
DEBUG 2017-04-14 11:20:32,877 [1    ] Abp.Modules.AbpModuleManager             - Loaded module: Abp.AutoMapper.AbpAutoMapperModule, Abp.AutoMapper, Version=1.3.1.0, Culture=neutral, PublicKeyToken=null
DEBUG 2017-04-14 11:20:32,877 [1    ] Abp.Modules.AbpModuleManager             - Loaded module: JJ.ProjectManagement.Api.ProjectManagementWebApiModule, JJ.ProjectManagement.WebApi, Version=1.0.0.0, Culture=neutral, PublicKeyToken=null
DEBUG 2017-04-14 11:20:32,877 [1    ] Abp.Modules.AbpModuleManager             - Loaded module: Abp.WebApi.AbpWebApiModule, Abp.Web.Api, Version=1.3.1.0, Culture=neutral, PublicKeyToken=null
DEBUG 2017-04-14 11:20:32,877 [1    ] Abp.Modules.AbpModuleManager             - Loaded module: Abp.Web.AbpWebModule, Abp.Web, Version=1.3.1.0, Culture=neutral, PublicKeyToken=null
DEBUG 2017-04-14 11:20:32,877 [1    ] Abp.Modules.AbpModuleManager             - Loaded module: Abp.Web.AbpWebCommonModule, Abp.Web.Common, Version=1.3.1.0, Culture=neutral, PublicKeyToken=null
DEBUG 2017-04-14 11:20:32,877 [1    ] Abp.Modules.AbpModuleManager             - Loaded module: Abp.Web.SignalR.AbpWebSignalRModule, Abp.Web.SignalR, Version=1.3.1.0, Culture=neutral, PublicKeyToken=null
DEBUG 2017-04-14 11:20:32,877 [1    ] Abp.Modules.AbpModuleManager             - Loaded module: Abp.Web.Mvc.AbpWebMvcModule, Abp.Web.Mvc, Version=1.3.1.0, Culture=neutral, PublicKeyToken=null
DEBUG 2017-04-14 11:20:32,881 [1    ] Abp.Modules.AbpModuleManager             - 15 modules loaded.
DEBUG 2017-04-14 11:20:33,019 [1    ] o.Configuration.LanguageManagementConfig - Converted Abp (Abp.Localization.Dictionaries.DictionaryBasedLocalizationSource) to MultiTenantLocalizationSource
DEBUG 2017-04-14 11:20:33,019 [1    ] o.Configuration.LanguageManagementConfig - Converted AbpZero (Abp.Localization.Dictionaries.DictionaryBasedLocalizationSource) to MultiTenantLocalizationSource
DEBUG 2017-04-14 11:20:33,019 [1    ] o.Configuration.LanguageManagementConfig - Converted ProjectManagement (Abp.Localization.Dictionaries.DictionaryBasedLocalizationSource) to MultiTenantLocalizationSource
DEBUG 2017-04-14 11:20:33,019 [1    ] o.Configuration.LanguageManagementConfig - Converted AbpWeb (Abp.Localization.Dictionaries.DictionaryBasedLocalizationSource) to MultiTenantLocalizationSource
DEBUG 2017-04-14 11:20:33,418 [1    ] EntityFramework.AbpEntityFrameworkModule - Registering DbContext: JJ.ProjectManagement.EntityFramework.ProjectManagementDbContext, JJ.ProjectManagement.EntityFramework, Version=1.0.0.0, Culture=neutral, PublicKeyToken=null
DEBUG 2017-04-14 11:20:34,663 [1    ] Abp.Localization.LocalizationManager     - Initializing 4 localization sources.
DEBUG 2017-04-14 11:20:34,671 [1    ] Abp.Localization.LocalizationManager     - Initialized localization source: Abp
DEBUG 2017-04-14 11:20:34,673 [1    ] Abp.Localization.LocalizationManager     - Initialized localization source: AbpZero
DEBUG 2017-04-14 11:20:34,675 [1    ] Abp.Localization.LocalizationManager     - Initialized localization source: ProjectManagement
DEBUG 2017-04-14 11:20:34,677 [1    ] Abp.Localization.LocalizationManager     - Initialized localization source: AbpWeb
DEBUG 2017-04-14 11:20:34,793 [1    ] Abp.BackgroundJobs.BackgroundJobManager  - Start background worker: Abp.BackgroundJobs.BackgroundJobManager
DEBUG 2017-04-14 11:20:34,853 [1    ] Abp.AutoMapper.AbpAutoMapperModule       - Found 21 classes define auto mapping attributes
DEBUG 2017-04-14 11:20:34,853 [1    ] Abp.AutoMapper.AbpAutoMapperModule       - JJ.ProjectManagement.Sessions.Dto.TenantLoginInfoDto
DEBUG 2017-04-14 11:20:34,856 [1    ] Abp.AutoMapper.AbpAutoMapperModule       - JJ.ProjectManagement.Sessions.Dto.UserLoginInfoDto
DEBUG 2017-04-14 11:20:34,856 [1    ] Abp.AutoMapper.AbpAutoMapperModule       - JJ.ProjectManagement.Users.Dto.CreateUserInput
DEBUG 2017-04-14 11:20:34,856 [1    ] Abp.AutoMapper.AbpAutoMapperModule       - JJ.ProjectManagement.Users.Dto.UserListDto
DEBUG 2017-04-14 11:20:34,856 [1    ] Abp.AutoMapper.AbpAutoMapperModule       - JJ.ProjectManagement.Sprints.Dto.CreateorUpdateIssueDto
DEBUG 2017-04-14 11:20:34,856 [1    ] Abp.AutoMapper.AbpAutoMapperModule       - JJ.ProjectManagement.Sprints.Dto.GetIssueInfoDto
DEBUG 2017-04-14 11:20:34,856 [1    ] Abp.AutoMapper.AbpAutoMapperModule       - JJ.ProjectManagement.Sprints.Dto.GetSprintDto
DEBUG 2017-04-14 11:20:34,856 [1    ] Abp.AutoMapper.AbpAutoMapperModule       - JJ.ProjectManagement.Sprints.Dto.LogTimeDto
DEBUG 2017-04-14 11:20:34,856 [1    ] Abp.AutoMapper.AbpAutoMapperModule       - JJ.ProjectManagement.Projects.Dto.AddMembersDto
DEBUG 2017-04-14 11:20:34,857 [1    ] Abp.AutoMapper.AbpAutoMapperModule       - JJ.ProjectManagement.Projects.Dto.CreateOrUpdateProjectDto
DEBUG 2017-04-14 11:20:34,857 [1    ] Abp.AutoMapper.AbpAutoMapperModule       - JJ.ProjectManagement.Projects.Dto.CreateOrUpdateSprint
DEBUG 2017-04-14 11:20:34,857 [1    ] Abp.AutoMapper.AbpAutoMapperModule       - JJ.ProjectManagement.Projects.Dto.GetMemberDto
DEBUG 2017-04-14 11:20:34,857 [1    ] Abp.AutoMapper.AbpAutoMapperModule       - JJ.ProjectManagement.Projects.Dto.GetProjectDto
DEBUG 2017-04-14 11:20:34,857 [1    ] Abp.AutoMapper.AbpAutoMapperModule       - JJ.ProjectManagement.Projects.Dto.GetSingleProjectDto
DEBUG 2017-04-14 11:20:34,857 [1    ] Abp.AutoMapper.AbpAutoMapperModule       - JJ.ProjectManagement.Projects.Dto.GetSprintDto
DEBUG 2017-04-14 11:20:34,857 [1    ] Abp.AutoMapper.AbpAutoMapperModule       - JJ.ProjectManagement.Projects.Dto.GetUserDto
DEBUG 2017-04-14 11:20:34,857 [1    ] Abp.AutoMapper.AbpAutoMapperModule       - JJ.ProjectManagement.MultiTenancy.Dto.CreateTenantInput
DEBUG 2017-04-14 11:20:34,857 [1    ] Abp.AutoMapper.AbpAutoMapperModule       - JJ.ProjectManagement.MultiTenancy.Dto.TenantListDto
DEBUG 2017-04-14 11:20:34,857 [1    ] Abp.AutoMapper.AbpAutoMapperModule       - JJ.ProjectManagement.Dictionaries.dto.MemberDto
DEBUG 2017-04-14 11:20:34,857 [1    ] Abp.AutoMapper.AbpAutoMapperModule       - JJ.ProjectManagement.Dictionaries.dto.UserDto
DEBUG 2017-04-14 11:20:34,857 [1    ] Abp.AutoMapper.AbpAutoMapperModule       - JJ.ProjectManagement.Web.Models.Account.TenantSelectionViewModel+TenantInfo
DEBUG 2017-04-14 11:20:36,879 [1    ] Abp.Logging.LogHelper                    - Dynamic web api controller is created for type 'JJ.ProjectManagement.WorkTime.IWorkTimeAppService' with service name 'app/workTime'.
DEBUG 2017-04-14 11:20:36,880 [1    ] Abp.Logging.LogHelper                    - Dynamic web api controller is created for type 'JJ.ProjectManagement.Sessions.ISessionAppService' with service name 'app/session'.
DEBUG 2017-04-14 11:20:36,881 [1    ] Abp.Logging.LogHelper                    - Dynamic web api controller is created for type 'JJ.ProjectManagement.Users.IUserAppService' with service name 'app/user'.
DEBUG 2017-04-14 11:20:36,883 [1    ] Abp.Logging.LogHelper                    - Dynamic web api controller is created for type 'JJ.ProjectManagement.Sprints.ISprintsAppService' with service name 'app/sprints'.
DEBUG 2017-04-14 11:20:36,884 [1    ] Abp.Logging.LogHelper                    - Dynamic web api controller is created for type 'JJ.ProjectManagement.Roles.IRoleAppService' with service name 'app/role'.
DEBUG 2017-04-14 11:20:36,886 [1    ] Abp.Logging.LogHelper                    - Dynamic web api controller is created for type 'JJ.ProjectManagement.Projects.IProjectsAppService' with service name 'app/projects'.
DEBUG 2017-04-14 11:20:36,887 [1    ] Abp.Logging.LogHelper                    - Dynamic web api controller is created for type 'JJ.ProjectManagement.MultiTenancy.ITenantAppService' with service name 'app/tenant'.
DEBUG 2017-04-14 11:20:36,888 [1    ] Abp.Logging.LogHelper                    - Dynamic web api controller is created for type 'JJ.ProjectManagement.Dictionaries.IDictionaryAppService' with service name 'app/dictionary'.
DEBUG 2017-04-14 11:20:43,806 [8    ] Abp.Web.SignalR.Hubs.AbpCommonHub        - A client is connected: {"ConnectionId":"f60e5595-9282-41ae-ac65-377d6649c0d4","IpAddress":"::1","TenantId":1,"UserId":2,"ConnectTime":"2017-04-14T11:20:43.7980128+02:00","Properties":{}}
DEBUG 2017-04-14 11:20:43,855 [8    ] Abp.Web.SignalR.Hubs.AbpCommonHub        - A client is registered: f60e5595-9282-41ae-ac65-377d6649c0d4
ERROR 2017-04-14 11:21:59,297 [24   ] nHandling.AbpApiExceptionFilterAttribute - Collection was modified; enumeration operation may not execute.
System.InvalidOperationException: Collection was modified; enumeration operation may not execute.
   at System.Collections.Generic.HashSet`1.Enumerator.MoveNext()
   at JJ.ProjectManagement.Projects.ProjectsAppService.<DeleteSprint>d__19.MoveNext() in C:\Users\jerzy\Documents\Repositories\ProjectManagement\JJ.ProjectManagement.Application\Projects\ProjectsAppService.cs:line 159
--- End of stack trace from previous location where exception was thrown ---
   at System.Runtime.CompilerServices.TaskAwaiter.ThrowForNonSuccess(Task task)
   at System.Runtime.CompilerServices.TaskAwaiter.HandleNonSuccessAndDebuggerNotification(Task task)
   at Abp.Threading.InternalAsyncHelper.<AwaitTaskWithPostActionAndFinally>d__1.MoveNext() in D:\Halil\Github\aspnetboilerplate\src\Abp\Threading\InternalAsyncHelper.cs:line 40
--- End of stack trace from previous location where exception was thrown ---
   at System.Runtime.CompilerServices.TaskAwaiter.ThrowForNonSuccess(Task task)
   at System.Runtime.CompilerServices.TaskAwaiter.HandleNonSuccessAndDebuggerNotification(Task task)
   at Abp.Threading.InternalAsyncHelper.<AwaitTaskWithFinally>d__0.MoveNext() in D:\Halil\Github\aspnetboilerplate\src\Abp\Threading\InternalAsyncHelper.cs:line 20
--- End of stack trace from previous location where exception was thrown ---
   at System.Runtime.CompilerServices.TaskAwaiter.ThrowForNonSuccess(Task task)
   at System.Runtime.CompilerServices.TaskAwaiter.HandleNonSuccessAndDebuggerNotification(Task task)
   at System.Threading.Tasks.TaskHelpersExtensions.<CastToObject>d__0.MoveNext()
--- End of stack trace from previous location where exception was thrown ---
   at System.Runtime.CompilerServices.TaskAwaiter.ThrowForNonSuccess(Task task)
   at System.Runtime.CompilerServices.TaskAwaiter.HandleNonSuccessAndDebuggerNotification(Task task)
   at System.Web.Http.Controllers.ApiControllerActionInvoker.<InvokeActionAsyncCore>d__0.MoveNext()
--- End of stack trace from previous location where exception was thrown ---
   at System.Runtime.CompilerServices.TaskAwaiter.ThrowForNonSuccess(Task task)
   at System.Runtime.CompilerServices.TaskAwaiter.HandleNonSuccessAndDebuggerNotification(Task task)
   at Abp.WebApi.Uow.AbpApiUowFilter.<ExecuteActionFilterAsync>d__5.MoveNext() in D:\Halil\Github\aspnetboilerplate\src\Abp.Web.Api\WebApi\Uow\AbpApiUowFilter.cs:line 40
--- End of stack trace from previous location where exception was thrown ---
   at System.Runtime.CompilerServices.TaskAwaiter.ThrowForNonSuccess(Task task)
   at System.Runtime.CompilerServices.TaskAwaiter.HandleNonSuccessAndDebuggerNotification(Task task)
   at Abp.WebApi.Validation.AbpApiValidationFilter.<ExecuteActionFilterAsync>d__5.MoveNext() in D:\Halil\Github\aspnetboilerplate\src\Abp.Web.Api\WebApi\Validation\AbpApiValidationFilter.cs:line 40
--- End of stack trace from previous location where exception was thrown ---
   at System.Runtime.CompilerServices.TaskAwaiter.ThrowForNonSuccess(Task task)
   at System.Runtime.CompilerServices.TaskAwaiter.HandleNonSuccessAndDebuggerNotification(Task task)
   at Abp.WebApi.Auditing.AbpApiAuditFilter.<ExecuteActionFilterAsync>d__4.MoveNext() in D:\Halil\Github\aspnetboilerplate\src\Abp.Web.Api\WebApi\Auditing\AbpApiAuditFilter.cs:line 30
--- End of stack trace from previous location where exception was thrown ---
   at System.Runtime.CompilerServices.TaskAwaiter.ThrowForNonSuccess(Task task)
   at System.Runtime.CompilerServices.TaskAwaiter.HandleNonSuccessAndDebuggerNotification(Task task)
   at System.Web.Http.Controllers.ActionFilterResult.<ExecuteAsync>d__2.MoveNext()
--- End of stack trace from previous location where exception was thrown ---
   at System.Runtime.CompilerServices.TaskAwaiter.ThrowForNonSuccess(Task task)
   at System.Runtime.CompilerServices.TaskAwaiter.HandleNonSuccessAndDebuggerNotification(Task task)
   at Abp.WebApi.Security.AntiForgery.AbpAntiForgeryApiFilter.<ExecuteAuthorizationFilterAsync>d__10.MoveNext() in D:\Halil\Github\aspnetboilerplate\src\Abp.Web.Api\WebApi\Security\AntiForgery\AbpAntiForgeryApiFilter.cs:line 59
--- End of stack trace from previous location where exception was thrown ---
   at System.Runtime.CompilerServices.TaskAwaiter.ThrowForNonSuccess(Task task)
   at System.Runtime.CompilerServices.TaskAwaiter.HandleNonSuccessAndDebuggerNotification(Task task)
   at Abp.WebApi.Authorization.AbpApiAuthorizeFilter.<ExecuteAuthorizationFilterAsync>d__7.MoveNext() in D:\Halil\Github\aspnetboilerplate\src\Abp.Web.Api\WebApi\Authorization\AbpApiAuthorizeFilter.cs:line 63
--- End of stack trace from previous location where exception was thrown ---
   at System.Runtime.CompilerServices.TaskAwaiter.ThrowForNonSuccess(Task task)
   at System.Runtime.CompilerServices.TaskAwaiter.HandleNonSuccessAndDebuggerNotification(Task task)
   at System.Web.Http.Controllers.AuthenticationFilterResult.<ExecuteAsync>d__0.MoveNext()
--- End of stack trace from previous location where exception was thrown ---
   at System.Runtime.CompilerServices.TaskAwaiter.ThrowForNonSuccess(Task task)
   at System.Runtime.CompilerServices.TaskAwaiter.HandleNonSuccessAndDebuggerNotification(Task task)
   at System.Web.Http.Controllers.ExceptionFilterResult.<ExecuteAsync>d__0.MoveNext()
DEBUG 2017-04-14 11:22:43,515 [1    ] Abp.Modules.AbpModuleManager             - Loading Abp modules...
DEBUG 2017-04-14 11:22:43,533 [1    ] Abp.Modules.AbpModuleManager             - Found 15 ABP modules in total.
DEBUG 2017-04-14 11:22:43,541 [1    ] Abp.Modules.AbpModuleManager             - Loaded module: JJ.ProjectManagement.Web.ProjectManagementWebModule, JJ.ProjectManagement.Web, Version=1.0.0.0, Culture=neutral, PublicKeyToken=null
DEBUG 2017-04-14 11:22:43,543 [1    ] Abp.Modules.AbpModuleManager             - Loaded module: JJ.ProjectManagement.ProjectManagementDataModule, JJ.ProjectManagement.EntityFramework, Version=1.0.0.0, Culture=neutral, PublicKeyToken=null
DEBUG 2017-04-14 11:22:43,543 [1    ] Abp.Modules.AbpModuleManager             - Loaded module: Abp.Zero.EntityFramework.AbpZeroEntityFrameworkModule, Abp.Zero.EntityFramework, Version=1.3.1.0, Culture=neutral, PublicKeyToken=null
DEBUG 2017-04-14 11:22:43,543 [1    ] Abp.Modules.AbpModuleManager             - Loaded module: Abp.Zero.AbpZeroCoreModule, Abp.Zero, Version=1.3.1.0, Culture=neutral, PublicKeyToken=null
DEBUG 2017-04-14 11:22:43,543 [1    ] Abp.Modules.AbpModuleManager             - Loaded module: Abp.AbpKernelModule, Abp, Version=1.3.1.0, Culture=neutral, PublicKeyToken=null
DEBUG 2017-04-14 11:22:43,544 [1    ] Abp.Modules.AbpModuleManager             - Loaded module: Abp.EntityFramework.AbpEntityFrameworkModule, Abp.EntityFramework, Version=1.3.1.0, Culture=neutral, PublicKeyToken=null
DEBUG 2017-04-14 11:22:43,544 [1    ] Abp.Modules.AbpModuleManager             - Loaded module: JJ.ProjectManagement.ProjectManagementCoreModule, JJ.ProjectManagement.Core, Version=1.0.0.0, Culture=neutral, PublicKeyToken=null
DEBUG 2017-04-14 11:22:43,544 [1    ] Abp.Modules.AbpModuleManager             - Loaded module: JJ.ProjectManagement.ProjectManagementApplicationModule, JJ.ProjectManagement.Application, Version=1.0.0.0, Culture=neutral, PublicKeyToken=null
DEBUG 2017-04-14 11:22:43,544 [1    ] Abp.Modules.AbpModuleManager             - Loaded module: Abp.AutoMapper.AbpAutoMapperModule, Abp.AutoMapper, Version=1.3.1.0, Culture=neutral, PublicKeyToken=null
DEBUG 2017-04-14 11:22:43,544 [1    ] Abp.Modules.AbpModuleManager             - Loaded module: JJ.ProjectManagement.Api.ProjectManagementWebApiModule, JJ.ProjectManagement.WebApi, Version=1.0.0.0, Culture=neutral, PublicKeyToken=null
DEBUG 2017-04-14 11:22:43,544 [1    ] Abp.Modules.AbpModuleManager             - Loaded module: Abp.WebApi.AbpWebApiModule, Abp.Web.Api, Version=1.3.1.0, Culture=neutral, PublicKeyToken=null
DEBUG 2017-04-14 11:22:43,545 [1    ] Abp.Modules.AbpModuleManager             - Loaded module: Abp.Web.AbpWebModule, Abp.Web, Version=1.3.1.0, Culture=neutral, PublicKeyToken=null
DEBUG 2017-04-14 11:22:43,545 [1    ] Abp.Modules.AbpModuleManager             - Loaded module: Abp.Web.AbpWebCommonModule, Abp.Web.Common, Version=1.3.1.0, Culture=neutral, PublicKeyToken=null
DEBUG 2017-04-14 11:22:43,545 [1    ] Abp.Modules.AbpModuleManager             - Loaded module: Abp.Web.SignalR.AbpWebSignalRModule, Abp.Web.SignalR, Version=1.3.1.0, Culture=neutral, PublicKeyToken=null
DEBUG 2017-04-14 11:22:43,545 [1    ] Abp.Modules.AbpModuleManager             - Loaded module: Abp.Web.Mvc.AbpWebMvcModule, Abp.Web.Mvc, Version=1.3.1.0, Culture=neutral, PublicKeyToken=null
DEBUG 2017-04-14 11:22:43,548 [1    ] Abp.Modules.AbpModuleManager             - 15 modules loaded.
DEBUG 2017-04-14 11:22:43,733 [1    ] o.Configuration.LanguageManagementConfig - Converted Abp (Abp.Localization.Dictionaries.DictionaryBasedLocalizationSource) to MultiTenantLocalizationSource
DEBUG 2017-04-14 11:22:43,733 [1    ] o.Configuration.LanguageManagementConfig - Converted AbpZero (Abp.Localization.Dictionaries.DictionaryBasedLocalizationSource) to MultiTenantLocalizationSource
DEBUG 2017-04-14 11:22:43,733 [1    ] o.Configuration.LanguageManagementConfig - Converted ProjectManagement (Abp.Localization.Dictionaries.DictionaryBasedLocalizationSource) to MultiTenantLocalizationSource
DEBUG 2017-04-14 11:22:43,733 [1    ] o.Configuration.LanguageManagementConfig - Converted AbpWeb (Abp.Localization.Dictionaries.DictionaryBasedLocalizationSource) to MultiTenantLocalizationSource
DEBUG 2017-04-14 11:22:44,126 [1    ] EntityFramework.AbpEntityFrameworkModule - Registering DbContext: JJ.ProjectManagement.EntityFramework.ProjectManagementDbContext, JJ.ProjectManagement.EntityFramework, Version=1.0.0.0, Culture=neutral, PublicKeyToken=null
DEBUG 2017-04-14 11:22:45,364 [1    ] Abp.Localization.LocalizationManager     - Initializing 4 localization sources.
DEBUG 2017-04-14 11:22:45,372 [1    ] Abp.Localization.LocalizationManager     - Initialized localization source: Abp
DEBUG 2017-04-14 11:22:45,374 [1    ] Abp.Localization.LocalizationManager     - Initialized localization source: AbpZero
DEBUG 2017-04-14 11:22:45,377 [1    ] Abp.Localization.LocalizationManager     - Initialized localization source: ProjectManagement
DEBUG 2017-04-14 11:22:45,378 [1    ] Abp.Localization.LocalizationManager     - Initialized localization source: AbpWeb
DEBUG 2017-04-14 11:22:45,482 [1    ] Abp.BackgroundJobs.BackgroundJobManager  - Start background worker: Abp.BackgroundJobs.BackgroundJobManager
DEBUG 2017-04-14 11:22:45,542 [1    ] Abp.AutoMapper.AbpAutoMapperModule       - Found 21 classes define auto mapping attributes
DEBUG 2017-04-14 11:22:45,542 [1    ] Abp.AutoMapper.AbpAutoMapperModule       - JJ.ProjectManagement.Sessions.Dto.TenantLoginInfoDto
DEBUG 2017-04-14 11:22:45,545 [1    ] Abp.AutoMapper.AbpAutoMapperModule       - JJ.ProjectManagement.Sessions.Dto.UserLoginInfoDto
DEBUG 2017-04-14 11:22:45,545 [1    ] Abp.AutoMapper.AbpAutoMapperModule       - JJ.ProjectManagement.Users.Dto.CreateUserInput
DEBUG 2017-04-14 11:22:45,545 [1    ] Abp.AutoMapper.AbpAutoMapperModule       - JJ.ProjectManagement.Users.Dto.UserListDto
DEBUG 2017-04-14 11:22:45,545 [1    ] Abp.AutoMapper.AbpAutoMapperModule       - JJ.ProjectManagement.Sprints.Dto.CreateorUpdateIssueDto
DEBUG 2017-04-14 11:22:45,545 [1    ] Abp.AutoMapper.AbpAutoMapperModule       - JJ.ProjectManagement.Sprints.Dto.GetIssueInfoDto
DEBUG 2017-04-14 11:22:45,545 [1    ] Abp.AutoMapper.AbpAutoMapperModule       - JJ.ProjectManagement.Sprints.Dto.GetSprintDto
DEBUG 2017-04-14 11:22:45,545 [1    ] Abp.AutoMapper.AbpAutoMapperModule       - JJ.ProjectManagement.Sprints.Dto.LogTimeDto
DEBUG 2017-04-14 11:22:45,545 [1    ] Abp.AutoMapper.AbpAutoMapperModule       - JJ.ProjectManagement.Projects.Dto.AddMembersDto
DEBUG 2017-04-14 11:22:45,546 [1    ] Abp.AutoMapper.AbpAutoMapperModule       - JJ.ProjectManagement.Projects.Dto.CreateOrUpdateProjectDto
DEBUG 2017-04-14 11:22:45,546 [1    ] Abp.AutoMapper.AbpAutoMapperModule       - JJ.ProjectManagement.Projects.Dto.CreateOrUpdateSprint
DEBUG 2017-04-14 11:22:45,546 [1    ] Abp.AutoMapper.AbpAutoMapperModule       - JJ.ProjectManagement.Projects.Dto.GetMemberDto
DEBUG 2017-04-14 11:22:45,546 [1    ] Abp.AutoMapper.AbpAutoMapperModule       - JJ.ProjectManagement.Projects.Dto.GetProjectDto
DEBUG 2017-04-14 11:22:45,546 [1    ] Abp.AutoMapper.AbpAutoMapperModule       - JJ.ProjectManagement.Projects.Dto.GetSingleProjectDto
DEBUG 2017-04-14 11:22:45,546 [1    ] Abp.AutoMapper.AbpAutoMapperModule       - JJ.ProjectManagement.Projects.Dto.GetSprintDto
DEBUG 2017-04-14 11:22:45,546 [1    ] Abp.AutoMapper.AbpAutoMapperModule       - JJ.ProjectManagement.Projects.Dto.GetUserDto
DEBUG 2017-04-14 11:22:45,546 [1    ] Abp.AutoMapper.AbpAutoMapperModule       - JJ.ProjectManagement.MultiTenancy.Dto.CreateTenantInput
DEBUG 2017-04-14 11:22:45,546 [1    ] Abp.AutoMapper.AbpAutoMapperModule       - JJ.ProjectManagement.MultiTenancy.Dto.TenantListDto
DEBUG 2017-04-14 11:22:45,546 [1    ] Abp.AutoMapper.AbpAutoMapperModule       - JJ.ProjectManagement.Dictionaries.dto.MemberDto
DEBUG 2017-04-14 11:22:45,546 [1    ] Abp.AutoMapper.AbpAutoMapperModule       - JJ.ProjectManagement.Dictionaries.dto.UserDto
DEBUG 2017-04-14 11:22:45,546 [1    ] Abp.AutoMapper.AbpAutoMapperModule       - JJ.ProjectManagement.Web.Models.Account.TenantSelectionViewModel+TenantInfo
DEBUG 2017-04-14 11:22:47,641 [1    ] Abp.Logging.LogHelper                    - Dynamic web api controller is created for type 'JJ.ProjectManagement.WorkTime.IWorkTimeAppService' with service name 'app/workTime'.
DEBUG 2017-04-14 11:22:47,642 [1    ] Abp.Logging.LogHelper                    - Dynamic web api controller is created for type 'JJ.ProjectManagement.Sessions.ISessionAppService' with service name 'app/session'.
DEBUG 2017-04-14 11:22:47,643 [1    ] Abp.Logging.LogHelper                    - Dynamic web api controller is created for type 'JJ.ProjectManagement.Users.IUserAppService' with service name 'app/user'.
DEBUG 2017-04-14 11:22:47,645 [1    ] Abp.Logging.LogHelper                    - Dynamic web api controller is created for type 'JJ.ProjectManagement.Sprints.ISprintsAppService' with service name 'app/sprints'.
DEBUG 2017-04-14 11:22:47,646 [1    ] Abp.Logging.LogHelper                    - Dynamic web api controller is created for type 'JJ.ProjectManagement.Roles.IRoleAppService' with service name 'app/role'.
DEBUG 2017-04-14 11:22:47,647 [1    ] Abp.Logging.LogHelper                    - Dynamic web api controller is created for type 'JJ.ProjectManagement.Projects.IProjectsAppService' with service name 'app/projects'.
DEBUG 2017-04-14 11:22:47,649 [1    ] Abp.Logging.LogHelper                    - Dynamic web api controller is created for type 'JJ.ProjectManagement.MultiTenancy.ITenantAppService' with service name 'app/tenant'.
DEBUG 2017-04-14 11:22:47,650 [1    ] Abp.Logging.LogHelper                    - Dynamic web api controller is created for type 'JJ.ProjectManagement.Dictionaries.IDictionaryAppService' with service name 'app/dictionary'.
DEBUG 2017-04-14 11:22:54,236 [11   ] Abp.Web.SignalR.Hubs.AbpCommonHub        - A client is connected: {"ConnectionId":"5ef1f4e0-b7db-491c-a0bc-00462dc01db7","IpAddress":"::1","TenantId":1,"UserId":2,"ConnectTime":"2017-04-14T11:22:54.2262532+02:00","Properties":{}}
DEBUG 2017-04-14 11:22:54,369 [11   ] Abp.Web.SignalR.Hubs.AbpCommonHub        - A client is registered: 5ef1f4e0-b7db-491c-a0bc-00462dc01db7
WARN  2017-04-14 11:24:23,478 [15   ] Abp.Logging.LogHelper                    - Can not find 'CreateOrEditIssue' in localization source 'ProjectManagement'!
DEBUG 2017-04-14 11:25:06,216 [5    ] Abp.Web.SignalR.Hubs.AbpCommonHub        - A client is disconnected: 5ef1f4e0-b7db-491c-a0bc-00462dc01db7
DEBUG 2017-04-14 11:25:06,823 [6    ] Abp.Web.SignalR.Hubs.AbpCommonHub        - A client is connected: {"ConnectionId":"963fd7fc-160f-44be-99e8-fcd31043a95a","IpAddress":"::1","TenantId":1,"UserId":2,"ConnectTime":"2017-04-14T11:25:06.822629+02:00","Properties":{}}
DEBUG 2017-04-14 11:25:06,834 [15   ] Abp.Web.SignalR.Hubs.AbpCommonHub        - A client is registered: 963fd7fc-160f-44be-99e8-fcd31043a95a
DEBUG 2017-04-14 11:25:29,507 [5    ] Abp.Web.SignalR.Hubs.AbpCommonHub        - A client is disconnected: 963fd7fc-160f-44be-99e8-fcd31043a95a
DEBUG 2017-04-14 11:25:30,429 [5    ] Abp.Web.SignalR.Hubs.AbpCommonHub        - A client is connected: {"ConnectionId":"2a370b1e-c6a2-471a-a826-e7be8bb65fe3","IpAddress":"::1","TenantId":1,"UserId":2,"ConnectTime":"2017-04-14T11:25:30.4286647+02:00","Properties":{}}
DEBUG 2017-04-14 11:25:30,440 [18   ] Abp.Web.SignalR.Hubs.AbpCommonHub        - A client is registered: 2a370b1e-c6a2-471a-a826-e7be8bb65fe3
DEBUG 2017-04-14 11:27:15,531 [1    ] Abp.Modules.AbpModuleManager             - Loading Abp modules...
DEBUG 2017-04-14 11:27:15,546 [1    ] Abp.Modules.AbpModuleManager             - Found 15 ABP modules in total.
DEBUG 2017-04-14 11:27:15,552 [1    ] Abp.Modules.AbpModuleManager             - Loaded module: JJ.ProjectManagement.Web.ProjectManagementWebModule, JJ.ProjectManagement.Web, Version=1.0.0.0, Culture=neutral, PublicKeyToken=null
DEBUG 2017-04-14 11:27:15,555 [1    ] Abp.Modules.AbpModuleManager             - Loaded module: JJ.ProjectManagement.ProjectManagementDataModule, JJ.ProjectManagement.EntityFramework, Version=1.0.0.0, Culture=neutral, PublicKeyToken=null
DEBUG 2017-04-14 11:27:15,555 [1    ] Abp.Modules.AbpModuleManager             - Loaded module: Abp.Zero.EntityFramework.AbpZeroEntityFrameworkModule, Abp.Zero.EntityFramework, Version=1.3.1.0, Culture=neutral, PublicKeyToken=null
DEBUG 2017-04-14 11:27:15,556 [1    ] Abp.Modules.AbpModuleManager             - Loaded module: Abp.Zero.AbpZeroCoreModule, Abp.Zero, Version=1.3.1.0, Culture=neutral, PublicKeyToken=null
DEBUG 2017-04-14 11:27:15,556 [1    ] Abp.Modules.AbpModuleManager             - Loaded module: Abp.AbpKernelModule, Abp, Version=1.3.1.0, Culture=neutral, PublicKeyToken=null
DEBUG 2017-04-14 11:27:15,556 [1    ] Abp.Modules.AbpModuleManager             - Loaded module: Abp.EntityFramework.AbpEntityFrameworkModule, Abp.EntityFramework, Version=1.3.1.0, Culture=neutral, PublicKeyToken=null
DEBUG 2017-04-14 11:27:15,556 [1    ] Abp.Modules.AbpModuleManager             - Loaded module: JJ.ProjectManagement.ProjectManagementCoreModule, JJ.ProjectManagement.Core, Version=1.0.0.0, Culture=neutral, PublicKeyToken=null
DEBUG 2017-04-14 11:27:15,556 [1    ] Abp.Modules.AbpModuleManager             - Loaded module: JJ.ProjectManagement.ProjectManagementApplicationModule, JJ.ProjectManagement.Application, Version=1.0.0.0, Culture=neutral, PublicKeyToken=null
DEBUG 2017-04-14 11:27:15,557 [1    ] Abp.Modules.AbpModuleManager             - Loaded module: Abp.AutoMapper.AbpAutoMapperModule, Abp.AutoMapper, Version=1.3.1.0, Culture=neutral, PublicKeyToken=null
DEBUG 2017-04-14 11:27:15,557 [1    ] Abp.Modules.AbpModuleManager             - Loaded module: JJ.ProjectManagement.Api.ProjectManagementWebApiModule, JJ.ProjectManagement.WebApi, Version=1.0.0.0, Culture=neutral, PublicKeyToken=null
DEBUG 2017-04-14 11:27:15,557 [1    ] Abp.Modules.AbpModuleManager             - Loaded module: Abp.WebApi.AbpWebApiModule, Abp.Web.Api, Version=1.3.1.0, Culture=neutral, PublicKeyToken=null
DEBUG 2017-04-14 11:27:15,557 [1    ] Abp.Modules.AbpModuleManager             - Loaded module: Abp.Web.AbpWebModule, Abp.Web, Version=1.3.1.0, Culture=neutral, PublicKeyToken=null
DEBUG 2017-04-14 11:27:15,557 [1    ] Abp.Modules.AbpModuleManager             - Loaded module: Abp.Web.AbpWebCommonModule, Abp.Web.Common, Version=1.3.1.0, Culture=neutral, PublicKeyToken=null
DEBUG 2017-04-14 11:27:15,557 [1    ] Abp.Modules.AbpModuleManager             - Loaded module: Abp.Web.SignalR.AbpWebSignalRModule, Abp.Web.SignalR, Version=1.3.1.0, Culture=neutral, PublicKeyToken=null
DEBUG 2017-04-14 11:27:15,557 [1    ] Abp.Modules.AbpModuleManager             - Loaded module: Abp.Web.Mvc.AbpWebMvcModule, Abp.Web.Mvc, Version=1.3.1.0, Culture=neutral, PublicKeyToken=null
DEBUG 2017-04-14 11:27:15,561 [1    ] Abp.Modules.AbpModuleManager             - 15 modules loaded.
DEBUG 2017-04-14 11:27:15,700 [1    ] o.Configuration.LanguageManagementConfig - Converted Abp (Abp.Localization.Dictionaries.DictionaryBasedLocalizationSource) to MultiTenantLocalizationSource
DEBUG 2017-04-14 11:27:15,700 [1    ] o.Configuration.LanguageManagementConfig - Converted AbpZero (Abp.Localization.Dictionaries.DictionaryBasedLocalizationSource) to MultiTenantLocalizationSource
DEBUG 2017-04-14 11:27:15,700 [1    ] o.Configuration.LanguageManagementConfig - Converted ProjectManagement (Abp.Localization.Dictionaries.DictionaryBasedLocalizationSource) to MultiTenantLocalizationSource
DEBUG 2017-04-14 11:27:15,700 [1    ] o.Configuration.LanguageManagementConfig - Converted AbpWeb (Abp.Localization.Dictionaries.DictionaryBasedLocalizationSource) to MultiTenantLocalizationSource
DEBUG 2017-04-14 11:27:16,102 [1    ] EntityFramework.AbpEntityFrameworkModule - Registering DbContext: JJ.ProjectManagement.EntityFramework.ProjectManagementDbContext, JJ.ProjectManagement.EntityFramework, Version=1.0.0.0, Culture=neutral, PublicKeyToken=null
DEBUG 2017-04-14 11:27:17,393 [1    ] Abp.Localization.LocalizationManager     - Initializing 4 localization sources.
DEBUG 2017-04-14 11:27:17,402 [1    ] Abp.Localization.LocalizationManager     - Initialized localization source: Abp
DEBUG 2017-04-14 11:27:17,404 [1    ] Abp.Localization.LocalizationManager     - Initialized localization source: AbpZero
DEBUG 2017-04-14 11:27:17,407 [1    ] Abp.Localization.LocalizationManager     - Initialized localization source: ProjectManagement
DEBUG 2017-04-14 11:27:17,408 [1    ] Abp.Localization.LocalizationManager     - Initialized localization source: AbpWeb
DEBUG 2017-04-14 11:27:17,531 [1    ] Abp.BackgroundJobs.BackgroundJobManager  - Start background worker: Abp.BackgroundJobs.BackgroundJobManager
DEBUG 2017-04-14 11:27:17,619 [1    ] Abp.AutoMapper.AbpAutoMapperModule       - Found 21 classes define auto mapping attributes
DEBUG 2017-04-14 11:27:17,619 [1    ] Abp.AutoMapper.AbpAutoMapperModule       - JJ.ProjectManagement.Sessions.Dto.TenantLoginInfoDto
DEBUG 2017-04-14 11:27:17,622 [1    ] Abp.AutoMapper.AbpAutoMapperModule       - JJ.ProjectManagement.Sessions.Dto.UserLoginInfoDto
DEBUG 2017-04-14 11:27:17,622 [1    ] Abp.AutoMapper.AbpAutoMapperModule       - JJ.ProjectManagement.Users.Dto.CreateUserInput
DEBUG 2017-04-14 11:27:17,623 [1    ] Abp.AutoMapper.AbpAutoMapperModule       - JJ.ProjectManagement.Users.Dto.UserListDto
DEBUG 2017-04-14 11:27:17,623 [1    ] Abp.AutoMapper.AbpAutoMapperModule       - JJ.ProjectManagement.Sprints.Dto.CreateorUpdateIssueDto
DEBUG 2017-04-14 11:27:17,623 [1    ] Abp.AutoMapper.AbpAutoMapperModule       - JJ.ProjectManagement.Sprints.Dto.GetIssueInfoDto
DEBUG 2017-04-14 11:27:17,623 [1    ] Abp.AutoMapper.AbpAutoMapperModule       - JJ.ProjectManagement.Sprints.Dto.GetSprintDto
DEBUG 2017-04-14 11:27:17,623 [1    ] Abp.AutoMapper.AbpAutoMapperModule       - JJ.ProjectManagement.Sprints.Dto.LogTimeDto
DEBUG 2017-04-14 11:27:17,623 [1    ] Abp.AutoMapper.AbpAutoMapperModule       - JJ.ProjectManagement.Projects.Dto.AddMembersDto
DEBUG 2017-04-14 11:27:17,623 [1    ] Abp.AutoMapper.AbpAutoMapperModule       - JJ.ProjectManagement.Projects.Dto.CreateOrUpdateProjectDto
DEBUG 2017-04-14 11:27:17,623 [1    ] Abp.AutoMapper.AbpAutoMapperModule       - JJ.ProjectManagement.Projects.Dto.CreateOrUpdateSprint
DEBUG 2017-04-14 11:27:17,623 [1    ] Abp.AutoMapper.AbpAutoMapperModule       - JJ.ProjectManagement.Projects.Dto.GetMemberDto
DEBUG 2017-04-14 11:27:17,623 [1    ] Abp.AutoMapper.AbpAutoMapperModule       - JJ.ProjectManagement.Projects.Dto.GetProjectDto
DEBUG 2017-04-14 11:27:17,623 [1    ] Abp.AutoMapper.AbpAutoMapperModule       - JJ.ProjectManagement.Projects.Dto.GetSingleProjectDto
DEBUG 2017-04-14 11:27:17,623 [1    ] Abp.AutoMapper.AbpAutoMapperModule       - JJ.ProjectManagement.Projects.Dto.GetSprintDto
DEBUG 2017-04-14 11:27:17,623 [1    ] Abp.AutoMapper.AbpAutoMapperModule       - JJ.ProjectManagement.Projects.Dto.GetUserDto
DEBUG 2017-04-14 11:27:17,624 [1    ] Abp.AutoMapper.AbpAutoMapperModule       - JJ.ProjectManagement.MultiTenancy.Dto.CreateTenantInput
DEBUG 2017-04-14 11:27:17,624 [1    ] Abp.AutoMapper.AbpAutoMapperModule       - JJ.ProjectManagement.MultiTenancy.Dto.TenantListDto
DEBUG 2017-04-14 11:27:17,624 [1    ] Abp.AutoMapper.AbpAutoMapperModule       - JJ.ProjectManagement.Dictionaries.dto.MemberDto
DEBUG 2017-04-14 11:27:17,624 [1    ] Abp.AutoMapper.AbpAutoMapperModule       - JJ.ProjectManagement.Dictionaries.dto.UserDto
DEBUG 2017-04-14 11:27:17,624 [1    ] Abp.AutoMapper.AbpAutoMapperModule       - JJ.ProjectManagement.Web.Models.Account.TenantSelectionViewModel+TenantInfo
DEBUG 2017-04-14 11:27:19,651 [1    ] Abp.Logging.LogHelper                    - Dynamic web api controller is created for type 'JJ.ProjectManagement.WorkTime.IWorkTimeAppService' with service name 'app/workTime'.
DEBUG 2017-04-14 11:27:19,652 [1    ] Abp.Logging.LogHelper                    - Dynamic web api controller is created for type 'JJ.ProjectManagement.Sessions.ISessionAppService' with service name 'app/session'.
DEBUG 2017-04-14 11:27:19,653 [1    ] Abp.Logging.LogHelper                    - Dynamic web api controller is created for type 'JJ.ProjectManagement.Users.IUserAppService' with service name 'app/user'.
DEBUG 2017-04-14 11:27:19,654 [1    ] Abp.Logging.LogHelper                    - Dynamic web api controller is created for type 'JJ.ProjectManagement.Sprints.ISprintsAppService' with service name 'app/sprints'.
DEBUG 2017-04-14 11:27:19,655 [1    ] Abp.Logging.LogHelper                    - Dynamic web api controller is created for type 'JJ.ProjectManagement.Roles.IRoleAppService' with service name 'app/role'.
DEBUG 2017-04-14 11:27:19,656 [1    ] Abp.Logging.LogHelper                    - Dynamic web api controller is created for type 'JJ.ProjectManagement.Projects.IProjectsAppService' with service name 'app/projects'.
DEBUG 2017-04-14 11:27:19,657 [1    ] Abp.Logging.LogHelper                    - Dynamic web api controller is created for type 'JJ.ProjectManagement.MultiTenancy.ITenantAppService' with service name 'app/tenant'.
DEBUG 2017-04-14 11:27:19,658 [1    ] Abp.Logging.LogHelper                    - Dynamic web api controller is created for type 'JJ.ProjectManagement.Dictionaries.IDictionaryAppService' with service name 'app/dictionary'.
DEBUG 2017-04-14 11:27:27,086 [10   ] Abp.Web.SignalR.Hubs.AbpCommonHub        - A client is connected: {"ConnectionId":"7ff6786c-5dd3-47c9-848a-1ee3b1fb50ec","IpAddress":"::1","TenantId":1,"UserId":2,"ConnectTime":"2017-04-14T11:27:27.0752788+02:00","Properties":{}}
DEBUG 2017-04-14 11:27:27,164 [10   ] Abp.Web.SignalR.Hubs.AbpCommonHub        - A client is registered: 7ff6786c-5dd3-47c9-848a-1ee3b1fb50ec
DEBUG 2017-04-14 11:29:20,343 [1    ] Abp.Modules.AbpModuleManager             - Loading Abp modules...
DEBUG 2017-04-14 11:29:20,356 [1    ] Abp.Modules.AbpModuleManager             - Found 15 ABP modules in total.
DEBUG 2017-04-14 11:29:20,363 [1    ] Abp.Modules.AbpModuleManager             - Loaded module: JJ.ProjectManagement.Web.ProjectManagementWebModule, JJ.ProjectManagement.Web, Version=1.0.0.0, Culture=neutral, PublicKeyToken=null
DEBUG 2017-04-14 11:29:20,366 [1    ] Abp.Modules.AbpModuleManager             - Loaded module: JJ.ProjectManagement.ProjectManagementDataModule, JJ.ProjectManagement.EntityFramework, Version=1.0.0.0, Culture=neutral, PublicKeyToken=null
DEBUG 2017-04-14 11:29:20,366 [1    ] Abp.Modules.AbpModuleManager             - Loaded module: Abp.Zero.EntityFramework.AbpZeroEntityFrameworkModule, Abp.Zero.EntityFramework, Version=1.3.1.0, Culture=neutral, PublicKeyToken=null
DEBUG 2017-04-14 11:29:20,366 [1    ] Abp.Modules.AbpModuleManager             - Loaded module: Abp.Zero.AbpZeroCoreModule, Abp.Zero, Version=1.3.1.0, Culture=neutral, PublicKeyToken=null
DEBUG 2017-04-14 11:29:20,366 [1    ] Abp.Modules.AbpModuleManager             - Loaded module: Abp.AbpKernelModule, Abp, Version=1.3.1.0, Culture=neutral, PublicKeyToken=null
DEBUG 2017-04-14 11:29:20,367 [1    ] Abp.Modules.AbpModuleManager             - Loaded module: Abp.EntityFramework.AbpEntityFrameworkModule, Abp.EntityFramework, Version=1.3.1.0, Culture=neutral, PublicKeyToken=null
DEBUG 2017-04-14 11:29:20,367 [1    ] Abp.Modules.AbpModuleManager             - Loaded module: JJ.ProjectManagement.ProjectManagementCoreModule, JJ.ProjectManagement.Core, Version=1.0.0.0, Culture=neutral, PublicKeyToken=null
DEBUG 2017-04-14 11:29:20,367 [1    ] Abp.Modules.AbpModuleManager             - Loaded module: JJ.ProjectManagement.ProjectManagementApplicationModule, JJ.ProjectManagement.Application, Version=1.0.0.0, Culture=neutral, PublicKeyToken=null
DEBUG 2017-04-14 11:29:20,367 [1    ] Abp.Modules.AbpModuleManager             - Loaded module: Abp.AutoMapper.AbpAutoMapperModule, Abp.AutoMapper, Version=1.3.1.0, Culture=neutral, PublicKeyToken=null
DEBUG 2017-04-14 11:29:20,367 [1    ] Abp.Modules.AbpModuleManager             - Loaded module: JJ.ProjectManagement.Api.ProjectManagementWebApiModule, JJ.ProjectManagement.WebApi, Version=1.0.0.0, Culture=neutral, PublicKeyToken=null
DEBUG 2017-04-14 11:29:20,367 [1    ] Abp.Modules.AbpModuleManager             - Loaded module: Abp.WebApi.AbpWebApiModule, Abp.Web.Api, Version=1.3.1.0, Culture=neutral, PublicKeyToken=null
DEBUG 2017-04-14 11:29:20,367 [1    ] Abp.Modules.AbpModuleManager             - Loaded module: Abp.Web.AbpWebModule, Abp.Web, Version=1.3.1.0, Culture=neutral, PublicKeyToken=null
DEBUG 2017-04-14 11:29:20,368 [1    ] Abp.Modules.AbpModuleManager             - Loaded module: Abp.Web.AbpWebCommonModule, Abp.Web.Common, Version=1.3.1.0, Culture=neutral, PublicKeyToken=null
DEBUG 2017-04-14 11:29:20,368 [1    ] Abp.Modules.AbpModuleManager             - Loaded module: Abp.Web.SignalR.AbpWebSignalRModule, Abp.Web.SignalR, Version=1.3.1.0, Culture=neutral, PublicKeyToken=null
DEBUG 2017-04-14 11:29:20,368 [1    ] Abp.Modules.AbpModuleManager             - Loaded module: Abp.Web.Mvc.AbpWebMvcModule, Abp.Web.Mvc, Version=1.3.1.0, Culture=neutral, PublicKeyToken=null
DEBUG 2017-04-14 11:29:20,371 [1    ] Abp.Modules.AbpModuleManager             - 15 modules loaded.
DEBUG 2017-04-14 11:29:20,517 [1    ] o.Configuration.LanguageManagementConfig - Converted Abp (Abp.Localization.Dictionaries.DictionaryBasedLocalizationSource) to MultiTenantLocalizationSource
DEBUG 2017-04-14 11:29:20,517 [1    ] o.Configuration.LanguageManagementConfig - Converted AbpZero (Abp.Localization.Dictionaries.DictionaryBasedLocalizationSource) to MultiTenantLocalizationSource
DEBUG 2017-04-14 11:29:20,517 [1    ] o.Configuration.LanguageManagementConfig - Converted ProjectManagement (Abp.Localization.Dictionaries.DictionaryBasedLocalizationSource) to MultiTenantLocalizationSource
DEBUG 2017-04-14 11:29:20,517 [1    ] o.Configuration.LanguageManagementConfig - Converted AbpWeb (Abp.Localization.Dictionaries.DictionaryBasedLocalizationSource) to MultiTenantLocalizationSource
DEBUG 2017-04-14 11:29:20,957 [1    ] EntityFramework.AbpEntityFrameworkModule - Registering DbContext: JJ.ProjectManagement.EntityFramework.ProjectManagementDbContext, JJ.ProjectManagement.EntityFramework, Version=1.0.0.0, Culture=neutral, PublicKeyToken=null
DEBUG 2017-04-14 11:29:22,452 [1    ] Abp.Localization.LocalizationManager     - Initializing 4 localization sources.
DEBUG 2017-04-14 11:29:22,462 [1    ] Abp.Localization.LocalizationManager     - Initialized localization source: Abp
DEBUG 2017-04-14 11:29:22,464 [1    ] Abp.Localization.LocalizationManager     - Initialized localization source: AbpZero
DEBUG 2017-04-14 11:29:22,467 [1    ] Abp.Localization.LocalizationManager     - Initialized localization source: ProjectManagement
DEBUG 2017-04-14 11:29:22,468 [1    ] Abp.Localization.LocalizationManager     - Initialized localization source: AbpWeb
DEBUG 2017-04-14 11:29:22,615 [1    ] Abp.BackgroundJobs.BackgroundJobManager  - Start background worker: Abp.BackgroundJobs.BackgroundJobManager
DEBUG 2017-04-14 11:29:22,705 [1    ] Abp.AutoMapper.AbpAutoMapperModule       - Found 21 classes define auto mapping attributes
DEBUG 2017-04-14 11:29:22,705 [1    ] Abp.AutoMapper.AbpAutoMapperModule       - JJ.ProjectManagement.Sessions.Dto.TenantLoginInfoDto
DEBUG 2017-04-14 11:29:22,711 [1    ] Abp.AutoMapper.AbpAutoMapperModule       - JJ.ProjectManagement.Sessions.Dto.UserLoginInfoDto
DEBUG 2017-04-14 11:29:22,712 [1    ] Abp.AutoMapper.AbpAutoMapperModule       - JJ.ProjectManagement.Users.Dto.CreateUserInput
DEBUG 2017-04-14 11:29:22,712 [1    ] Abp.AutoMapper.AbpAutoMapperModule       - JJ.ProjectManagement.Users.Dto.UserListDto
DEBUG 2017-04-14 11:29:22,712 [1    ] Abp.AutoMapper.AbpAutoMapperModule       - JJ.ProjectManagement.Sprints.Dto.CreateorUpdateIssueDto
DEBUG 2017-04-14 11:29:22,712 [1    ] Abp.AutoMapper.AbpAutoMapperModule       - JJ.ProjectManagement.Sprints.Dto.GetIssueInfoDto
DEBUG 2017-04-14 11:29:22,712 [1    ] Abp.AutoMapper.AbpAutoMapperModule       - JJ.ProjectManagement.Sprints.Dto.GetSprintDto
DEBUG 2017-04-14 11:29:22,713 [1    ] Abp.AutoMapper.AbpAutoMapperModule       - JJ.ProjectManagement.Sprints.Dto.LogTimeDto
DEBUG 2017-04-14 11:29:22,713 [1    ] Abp.AutoMapper.AbpAutoMapperModule       - JJ.ProjectManagement.Projects.Dto.AddMembersDto
DEBUG 2017-04-14 11:29:22,713 [1    ] Abp.AutoMapper.AbpAutoMapperModule       - JJ.ProjectManagement.Projects.Dto.CreateOrUpdateProjectDto
DEBUG 2017-04-14 11:29:22,713 [1    ] Abp.AutoMapper.AbpAutoMapperModule       - JJ.ProjectManagement.Projects.Dto.CreateOrUpdateSprint
DEBUG 2017-04-14 11:29:22,713 [1    ] Abp.AutoMapper.AbpAutoMapperModule       - JJ.ProjectManagement.Projects.Dto.GetMemberDto
DEBUG 2017-04-14 11:29:22,713 [1    ] Abp.AutoMapper.AbpAutoMapperModule       - JJ.ProjectManagement.Projects.Dto.GetProjectDto
DEBUG 2017-04-14 11:29:22,713 [1    ] Abp.AutoMapper.AbpAutoMapperModule       - JJ.ProjectManagement.Projects.Dto.GetSingleProjectDto
DEBUG 2017-04-14 11:29:22,713 [1    ] Abp.AutoMapper.AbpAutoMapperModule       - JJ.ProjectManagement.Projects.Dto.GetSprintDto
DEBUG 2017-04-14 11:29:22,713 [1    ] Abp.AutoMapper.AbpAutoMapperModule       - JJ.ProjectManagement.Projects.Dto.GetUserDto
DEBUG 2017-04-14 11:29:22,713 [1    ] Abp.AutoMapper.AbpAutoMapperModule       - JJ.ProjectManagement.MultiTenancy.Dto.CreateTenantInput
DEBUG 2017-04-14 11:29:22,713 [1    ] Abp.AutoMapper.AbpAutoMapperModule       - JJ.ProjectManagement.MultiTenancy.Dto.TenantListDto
DEBUG 2017-04-14 11:29:22,714 [1    ] Abp.AutoMapper.AbpAutoMapperModule       - JJ.ProjectManagement.Dictionaries.dto.MemberDto
DEBUG 2017-04-14 11:29:22,714 [1    ] Abp.AutoMapper.AbpAutoMapperModule       - JJ.ProjectManagement.Dictionaries.dto.UserDto
DEBUG 2017-04-14 11:29:22,714 [1    ] Abp.AutoMapper.AbpAutoMapperModule       - JJ.ProjectManagement.Web.Models.Account.TenantSelectionViewModel+TenantInfo
DEBUG 2017-04-14 11:29:25,145 [1    ] Abp.Logging.LogHelper                    - Dynamic web api controller is created for type 'JJ.ProjectManagement.WorkTime.IWorkTimeAppService' with service name 'app/workTime'.
DEBUG 2017-04-14 11:29:25,146 [1    ] Abp.Logging.LogHelper                    - Dynamic web api controller is created for type 'JJ.ProjectManagement.Sessions.ISessionAppService' with service name 'app/session'.
DEBUG 2017-04-14 11:29:25,148 [1    ] Abp.Logging.LogHelper                    - Dynamic web api controller is created for type 'JJ.ProjectManagement.Users.IUserAppService' with service name 'app/user'.
DEBUG 2017-04-14 11:29:25,150 [1    ] Abp.Logging.LogHelper                    - Dynamic web api controller is created for type 'JJ.ProjectManagement.Sprints.ISprintsAppService' with service name 'app/sprints'.
DEBUG 2017-04-14 11:29:25,151 [1    ] Abp.Logging.LogHelper                    - Dynamic web api controller is created for type 'JJ.ProjectManagement.Roles.IRoleAppService' with service name 'app/role'.
DEBUG 2017-04-14 11:29:25,153 [1    ] Abp.Logging.LogHelper                    - Dynamic web api controller is created for type 'JJ.ProjectManagement.Projects.IProjectsAppService' with service name 'app/projects'.
DEBUG 2017-04-14 11:29:25,154 [1    ] Abp.Logging.LogHelper                    - Dynamic web api controller is created for type 'JJ.ProjectManagement.MultiTenancy.ITenantAppService' with service name 'app/tenant'.
DEBUG 2017-04-14 11:29:25,155 [1    ] Abp.Logging.LogHelper                    - Dynamic web api controller is created for type 'JJ.ProjectManagement.Dictionaries.IDictionaryAppService' with service name 'app/dictionary'.
DEBUG 2017-04-14 11:29:33,040 [9    ] Abp.Web.SignalR.Hubs.AbpCommonHub        - A client is connected: {"ConnectionId":"0a7acd3c-4a90-4632-a909-67dd2c1d9ced","IpAddress":"::1","TenantId":1,"UserId":2,"ConnectTime":"2017-04-14T11:29:33.0278392+02:00","Properties":{}}
DEBUG 2017-04-14 11:29:33,219 [11   ] Abp.Web.SignalR.Hubs.AbpCommonHub        - A client is registered: 0a7acd3c-4a90-4632-a909-67dd2c1d9ced
DEBUG 2017-04-19 12:01:57,817 [1    ] Abp.Modules.AbpModuleManager             - Loading Abp modules...
DEBUG 2017-04-19 12:01:58,531 [1    ] Abp.Modules.AbpModuleManager             - Found 15 ABP modules in total.
DEBUG 2017-04-19 12:01:58,537 [1    ] Abp.Modules.AbpModuleManager             - Loaded module: JJ.ProjectManagement.Web.ProjectManagementWebModule, JJ.ProjectManagement.Web, Version=1.0.0.0, Culture=neutral, PublicKeyToken=null
DEBUG 2017-04-19 12:01:58,539 [1    ] Abp.Modules.AbpModuleManager             - Loaded module: JJ.ProjectManagement.ProjectManagementDataModule, JJ.ProjectManagement.EntityFramework, Version=1.0.0.0, Culture=neutral, PublicKeyToken=null
DEBUG 2017-04-19 12:01:58,539 [1    ] Abp.Modules.AbpModuleManager             - Loaded module: Abp.Zero.EntityFramework.AbpZeroEntityFrameworkModule, Abp.Zero.EntityFramework, Version=1.3.1.0, Culture=neutral, PublicKeyToken=null
DEBUG 2017-04-19 12:01:58,539 [1    ] Abp.Modules.AbpModuleManager             - Loaded module: Abp.Zero.AbpZeroCoreModule, Abp.Zero, Version=1.3.1.0, Culture=neutral, PublicKeyToken=null
DEBUG 2017-04-19 12:01:58,540 [1    ] Abp.Modules.AbpModuleManager             - Loaded module: Abp.AbpKernelModule, Abp, Version=1.3.1.0, Culture=neutral, PublicKeyToken=null
DEBUG 2017-04-19 12:01:58,540 [1    ] Abp.Modules.AbpModuleManager             - Loaded module: Abp.EntityFramework.AbpEntityFrameworkModule, Abp.EntityFramework, Version=1.3.1.0, Culture=neutral, PublicKeyToken=null
DEBUG 2017-04-19 12:01:58,540 [1    ] Abp.Modules.AbpModuleManager             - Loaded module: JJ.ProjectManagement.ProjectManagementCoreModule, JJ.ProjectManagement.Core, Version=1.0.0.0, Culture=neutral, PublicKeyToken=null
DEBUG 2017-04-19 12:01:58,540 [1    ] Abp.Modules.AbpModuleManager             - Loaded module: JJ.ProjectManagement.ProjectManagementApplicationModule, JJ.ProjectManagement.Application, Version=1.0.0.0, Culture=neutral, PublicKeyToken=null
DEBUG 2017-04-19 12:01:58,541 [1    ] Abp.Modules.AbpModuleManager             - Loaded module: Abp.AutoMapper.AbpAutoMapperModule, Abp.AutoMapper, Version=1.3.1.0, Culture=neutral, PublicKeyToken=null
DEBUG 2017-04-19 12:01:58,541 [1    ] Abp.Modules.AbpModuleManager             - Loaded module: JJ.ProjectManagement.Api.ProjectManagementWebApiModule, JJ.ProjectManagement.WebApi, Version=1.0.0.0, Culture=neutral, PublicKeyToken=null
DEBUG 2017-04-19 12:01:58,541 [1    ] Abp.Modules.AbpModuleManager             - Loaded module: Abp.WebApi.AbpWebApiModule, Abp.Web.Api, Version=1.3.1.0, Culture=neutral, PublicKeyToken=null
DEBUG 2017-04-19 12:01:58,541 [1    ] Abp.Modules.AbpModuleManager             - Loaded module: Abp.Web.AbpWebModule, Abp.Web, Version=1.3.1.0, Culture=neutral, PublicKeyToken=null
DEBUG 2017-04-19 12:01:58,542 [1    ] Abp.Modules.AbpModuleManager             - Loaded module: Abp.Web.AbpWebCommonModule, Abp.Web.Common, Version=1.3.1.0, Culture=neutral, PublicKeyToken=null
DEBUG 2017-04-19 12:01:58,542 [1    ] Abp.Modules.AbpModuleManager             - Loaded module: Abp.Web.SignalR.AbpWebSignalRModule, Abp.Web.SignalR, Version=1.3.1.0, Culture=neutral, PublicKeyToken=null
DEBUG 2017-04-19 12:01:58,542 [1    ] Abp.Modules.AbpModuleManager             - Loaded module: Abp.Web.Mvc.AbpWebMvcModule, Abp.Web.Mvc, Version=1.3.1.0, Culture=neutral, PublicKeyToken=null
DEBUG 2017-04-19 12:01:58,546 [1    ] Abp.Modules.AbpModuleManager             - 15 modules loaded.
DEBUG 2017-04-19 12:01:59,952 [1    ] o.Configuration.LanguageManagementConfig - Converted Abp (Abp.Localization.Dictionaries.DictionaryBasedLocalizationSource) to MultiTenantLocalizationSource
DEBUG 2017-04-19 12:01:59,952 [1    ] o.Configuration.LanguageManagementConfig - Converted AbpZero (Abp.Localization.Dictionaries.DictionaryBasedLocalizationSource) to MultiTenantLocalizationSource
DEBUG 2017-04-19 12:01:59,952 [1    ] o.Configuration.LanguageManagementConfig - Converted ProjectManagement (Abp.Localization.Dictionaries.DictionaryBasedLocalizationSource) to MultiTenantLocalizationSource
DEBUG 2017-04-19 12:01:59,952 [1    ] o.Configuration.LanguageManagementConfig - Converted AbpWeb (Abp.Localization.Dictionaries.DictionaryBasedLocalizationSource) to MultiTenantLocalizationSource
DEBUG 2017-04-19 12:02:00,621 [1    ] EntityFramework.AbpEntityFrameworkModule - Registering DbContext: JJ.ProjectManagement.EntityFramework.ProjectManagementDbContext, JJ.ProjectManagement.EntityFramework, Version=1.0.0.0, Culture=neutral, PublicKeyToken=null
DEBUG 2017-04-19 12:02:01,409 [1    ] Abp.Localization.LocalizationManager     - Initializing 4 localization sources.
DEBUG 2017-04-19 12:02:01,418 [1    ] Abp.Localization.LocalizationManager     - Initialized localization source: Abp
DEBUG 2017-04-19 12:02:01,421 [1    ] Abp.Localization.LocalizationManager     - Initialized localization source: AbpZero
DEBUG 2017-04-19 12:02:01,424 [1    ] Abp.Localization.LocalizationManager     - Initialized localization source: ProjectManagement
DEBUG 2017-04-19 12:02:01,426 [1    ] Abp.Localization.LocalizationManager     - Initialized localization source: AbpWeb
DEBUG 2017-04-19 12:02:01,545 [1    ] Abp.BackgroundJobs.BackgroundJobManager  - Start background worker: Abp.BackgroundJobs.BackgroundJobManager
DEBUG 2017-04-19 12:02:01,620 [1    ] Abp.AutoMapper.AbpAutoMapperModule       - Found 21 classes define auto mapping attributes
DEBUG 2017-04-19 12:02:01,620 [1    ] Abp.AutoMapper.AbpAutoMapperModule       - JJ.ProjectManagement.Sessions.Dto.TenantLoginInfoDto
DEBUG 2017-04-19 12:02:01,623 [1    ] Abp.AutoMapper.AbpAutoMapperModule       - JJ.ProjectManagement.Sessions.Dto.UserLoginInfoDto
DEBUG 2017-04-19 12:02:01,623 [1    ] Abp.AutoMapper.AbpAutoMapperModule       - JJ.ProjectManagement.Users.Dto.CreateUserInput
DEBUG 2017-04-19 12:02:01,623 [1    ] Abp.AutoMapper.AbpAutoMapperModule       - JJ.ProjectManagement.Users.Dto.UserListDto
DEBUG 2017-04-19 12:02:01,624 [1    ] Abp.AutoMapper.AbpAutoMapperModule       - JJ.ProjectManagement.Sprints.Dto.CreateorUpdateIssueDto
DEBUG 2017-04-19 12:02:01,624 [1    ] Abp.AutoMapper.AbpAutoMapperModule       - JJ.ProjectManagement.Sprints.Dto.GetIssueInfoDto
DEBUG 2017-04-19 12:02:01,624 [1    ] Abp.AutoMapper.AbpAutoMapperModule       - JJ.ProjectManagement.Sprints.Dto.GetSprintDto
DEBUG 2017-04-19 12:02:01,624 [1    ] Abp.AutoMapper.AbpAutoMapperModule       - JJ.ProjectManagement.Sprints.Dto.LogTimeDto
DEBUG 2017-04-19 12:02:01,624 [1    ] Abp.AutoMapper.AbpAutoMapperModule       - JJ.ProjectManagement.Projects.Dto.AddMembersDto
DEBUG 2017-04-19 12:02:01,624 [1    ] Abp.AutoMapper.AbpAutoMapperModule       - JJ.ProjectManagement.Projects.Dto.CreateOrUpdateProjectDto
DEBUG 2017-04-19 12:02:01,624 [1    ] Abp.AutoMapper.AbpAutoMapperModule       - JJ.ProjectManagement.Projects.Dto.CreateOrUpdateSprint
DEBUG 2017-04-19 12:02:01,624 [1    ] Abp.AutoMapper.AbpAutoMapperModule       - JJ.ProjectManagement.Projects.Dto.GetMemberDto
DEBUG 2017-04-19 12:02:01,624 [1    ] Abp.AutoMapper.AbpAutoMapperModule       - JJ.ProjectManagement.Projects.Dto.GetProjectDto
DEBUG 2017-04-19 12:02:01,624 [1    ] Abp.AutoMapper.AbpAutoMapperModule       - JJ.ProjectManagement.Projects.Dto.GetSingleProjectDto
DEBUG 2017-04-19 12:02:01,624 [1    ] Abp.AutoMapper.AbpAutoMapperModule       - JJ.ProjectManagement.Projects.Dto.GetSprintDto
DEBUG 2017-04-19 12:02:01,624 [1    ] Abp.AutoMapper.AbpAutoMapperModule       - JJ.ProjectManagement.Projects.Dto.GetUserDto
DEBUG 2017-04-19 12:02:01,624 [1    ] Abp.AutoMapper.AbpAutoMapperModule       - JJ.ProjectManagement.MultiTenancy.Dto.CreateTenantInput
DEBUG 2017-04-19 12:02:01,624 [1    ] Abp.AutoMapper.AbpAutoMapperModule       - JJ.ProjectManagement.MultiTenancy.Dto.TenantListDto
DEBUG 2017-04-19 12:02:01,624 [1    ] Abp.AutoMapper.AbpAutoMapperModule       - JJ.ProjectManagement.Dictionaries.dto.MemberDto
DEBUG 2017-04-19 12:02:01,624 [1    ] Abp.AutoMapper.AbpAutoMapperModule       - JJ.ProjectManagement.Dictionaries.dto.UserDto
DEBUG 2017-04-19 12:02:01,624 [1    ] Abp.AutoMapper.AbpAutoMapperModule       - JJ.ProjectManagement.Web.Models.Account.TenantSelectionViewModel+TenantInfo
DEBUG 2017-04-19 12:02:03,715 [1    ] Abp.Logging.LogHelper                    - Dynamic web api controller is created for type 'JJ.ProjectManagement.WorkTime.IWorkTimeAppService' with service name 'app/workTime'.
DEBUG 2017-04-19 12:02:03,716 [1    ] Abp.Logging.LogHelper                    - Dynamic web api controller is created for type 'JJ.ProjectManagement.Sessions.ISessionAppService' with service name 'app/session'.
DEBUG 2017-04-19 12:02:03,717 [1    ] Abp.Logging.LogHelper                    - Dynamic web api controller is created for type 'JJ.ProjectManagement.Users.IUserAppService' with service name 'app/user'.
DEBUG 2017-04-19 12:02:03,720 [1    ] Abp.Logging.LogHelper                    - Dynamic web api controller is created for type 'JJ.ProjectManagement.Sprints.ISprintsAppService' with service name 'app/sprints'.
DEBUG 2017-04-19 12:02:03,721 [1    ] Abp.Logging.LogHelper                    - Dynamic web api controller is created for type 'JJ.ProjectManagement.Roles.IRoleAppService' with service name 'app/role'.
DEBUG 2017-04-19 12:02:03,722 [1    ] Abp.Logging.LogHelper                    - Dynamic web api controller is created for type 'JJ.ProjectManagement.Projects.IProjectsAppService' with service name 'app/projects'.
DEBUG 2017-04-19 12:02:03,723 [1    ] Abp.Logging.LogHelper                    - Dynamic web api controller is created for type 'JJ.ProjectManagement.MultiTenancy.ITenantAppService' with service name 'app/tenant'.
DEBUG 2017-04-19 12:02:03,724 [1    ] Abp.Logging.LogHelper                    - Dynamic web api controller is created for type 'JJ.ProjectManagement.Dictionaries.IDictionaryAppService' with service name 'app/dictionary'.
WARN  2017-04-19 12:02:08,148 [6    ] Abp.Logging.LogHelper                    - Abp.Authorization.AbpAuthorizationException: Current user did not login to the application!
   at Abp.Authorization.AuthorizationHelper.<AuthorizeAsync>d__19.MoveNext() in D:\Halil\Github\aspnetboilerplate\src\Abp\Authorization\AuthorizationHelper.cs:line 42
--- End of stack trace from previous location where exception was thrown ---
   at System.Runtime.CompilerServices.TaskAwaiter.ThrowForNonSuccess(Task task)
   at System.Runtime.CompilerServices.TaskAwaiter.HandleNonSuccessAndDebuggerNotification(Task task)
   at Abp.Authorization.AuthorizationHelper.<CheckPermissions>d__22.MoveNext() in D:\Halil\Github\aspnetboilerplate\src\Abp\Authorization\AuthorizationHelper.cs:line 100
--- End of stack trace from previous location where exception was thrown ---
   at System.Runtime.CompilerServices.TaskAwaiter.ThrowForNonSuccess(Task task)
   at System.Runtime.CompilerServices.TaskAwaiter.HandleNonSuccessAndDebuggerNotification(Task task)
   at Abp.Authorization.AuthorizationHelper.<AuthorizeAsync>d__20.MoveNext() in D:\Halil\Github\aspnetboilerplate\src\Abp\Authorization\AuthorizationHelper.cs:line 67
--- End of stack trace from previous location where exception was thrown ---
   at System.Runtime.CompilerServices.TaskAwaiter.ThrowForNonSuccess(Task task)
   at System.Runtime.CompilerServices.TaskAwaiter.HandleNonSuccessAndDebuggerNotification(Task task)
   at Nito.AsyncEx.AsyncContext.<>c__DisplayClass3.<Run>b__1(Task t)
   at System.Threading.Tasks.ContinuationTaskFromTask.InnerInvoke()
   at System.Threading.Tasks.Task.Execute()
--- End of stack trace from previous location where exception was thrown ---
   at System.Runtime.CompilerServices.TaskAwaiter.ThrowForNonSuccess(Task task)
   at System.Runtime.CompilerServices.TaskAwaiter.HandleNonSuccessAndDebuggerNotification(Task task)
   at Nito.AsyncEx.AsyncContext.Run(Func`1 action)
   at Abp.Authorization.AuthorizationHelperExtensions.Authorize(IAuthorizationHelper authorizationHelper, MethodInfo methodInfo) in D:\Halil\Github\aspnetboilerplate\src\Abp\Authorization\AuthorizationHelperExtensions.cs:line 27
   at Abp.Web.Mvc.Authorization.AbpMvcAuthorizeFilter.OnAuthorization(AuthorizationContext filterContext) in D:\Halil\Github\aspnetboilerplate\src\Abp.Web.Mvc\Web\Mvc\Authorization\AbpMvcAuthorizeFilter.cs:line 48
Abp.Authorization.AbpAuthorizationException: Current user did not login to the application!
   at Abp.Authorization.AuthorizationHelper.<AuthorizeAsync>d__19.MoveNext() in D:\Halil\Github\aspnetboilerplate\src\Abp\Authorization\AuthorizationHelper.cs:line 42
--- End of stack trace from previous location where exception was thrown ---
   at System.Runtime.CompilerServices.TaskAwaiter.ThrowForNonSuccess(Task task)
   at System.Runtime.CompilerServices.TaskAwaiter.HandleNonSuccessAndDebuggerNotification(Task task)
   at Abp.Authorization.AuthorizationHelper.<CheckPermissions>d__22.MoveNext() in D:\Halil\Github\aspnetboilerplate\src\Abp\Authorization\AuthorizationHelper.cs:line 100
--- End of stack trace from previous location where exception was thrown ---
   at System.Runtime.CompilerServices.TaskAwaiter.ThrowForNonSuccess(Task task)
   at System.Runtime.CompilerServices.TaskAwaiter.HandleNonSuccessAndDebuggerNotification(Task task)
   at Abp.Authorization.AuthorizationHelper.<AuthorizeAsync>d__20.MoveNext() in D:\Halil\Github\aspnetboilerplate\src\Abp\Authorization\AuthorizationHelper.cs:line 67
--- End of stack trace from previous location where exception was thrown ---
   at System.Runtime.CompilerServices.TaskAwaiter.ThrowForNonSuccess(Task task)
   at System.Runtime.CompilerServices.TaskAwaiter.HandleNonSuccessAndDebuggerNotification(Task task)
   at Nito.AsyncEx.AsyncContext.<>c__DisplayClass3.<Run>b__1(Task t)
   at System.Threading.Tasks.ContinuationTaskFromTask.InnerInvoke()
   at System.Threading.Tasks.Task.Execute()
--- End of stack trace from previous location where exception was thrown ---
   at System.Runtime.CompilerServices.TaskAwaiter.ThrowForNonSuccess(Task task)
   at System.Runtime.CompilerServices.TaskAwaiter.HandleNonSuccessAndDebuggerNotification(Task task)
   at Nito.AsyncEx.AsyncContext.Run(Func`1 action)
   at Abp.Authorization.AuthorizationHelperExtensions.Authorize(IAuthorizationHelper authorizationHelper, MethodInfo methodInfo) in D:\Halil\Github\aspnetboilerplate\src\Abp\Authorization\AuthorizationHelperExtensions.cs:line 27
   at Abp.Web.Mvc.Authorization.AbpMvcAuthorizeFilter.OnAuthorization(AuthorizationContext filterContext) in D:\Halil\Github\aspnetboilerplate\src\Abp.Web.Mvc\Web\Mvc\Authorization\AbpMvcAuthorizeFilter.cs:line 48
WARN  2017-04-19 12:02:17,680 [6    ] gement.Web.Controllers.AccountController - Login failed!
Abp.UI.UserFriendlyException: Login failed!
   at JJ.ProjectManagement.Web.Controllers.AccountController.<GetLoginResultAsync>d__11.MoveNext() in C:\Users\jerzy\Documents\Repositories\ProjectManagement\JJ.ProjectManagement.Web\Controllers\AccountController.cs:line 114
--- End of stack trace from previous location where exception was thrown ---
   at System.Runtime.CompilerServices.TaskAwaiter.ThrowForNonSuccess(Task task)
   at System.Runtime.CompilerServices.TaskAwaiter.HandleNonSuccessAndDebuggerNotification(Task task)
   at System.Runtime.CompilerServices.TaskAwaiter`1.GetResult()
   at JJ.ProjectManagement.Web.Controllers.AccountController.<Login>d__10.MoveNext() in C:\Users\jerzy\Documents\Repositories\ProjectManagement\JJ.ProjectManagement.Web\Controllers\AccountController.cs:line 84
--- End of stack trace from previous location where exception was thrown ---
   at System.Runtime.CompilerServices.TaskAwaiter.ThrowForNonSuccess(Task task)
   at System.Runtime.CompilerServices.TaskAwaiter.HandleNonSuccessAndDebuggerNotification(Task task)
   at System.Web.Mvc.Async.TaskAsyncActionDescriptor.EndExecute(IAsyncResult asyncResult)
   at System.Web.Mvc.Async.AsyncControllerActionInvoker.<>c__DisplayClass37.<BeginInvokeAsynchronousActionMethod>b__36(IAsyncResult asyncResult)
   at System.Web.Mvc.Async.AsyncResultWrapper.WrappedAsyncResult`1.CallEndDelegate(IAsyncResult asyncResult)
   at System.Web.Mvc.Async.AsyncResultWrapper.WrappedAsyncResultBase`1.End()
   at System.Web.Mvc.Async.AsyncControllerActionInvoker.EndInvokeActionMethod(IAsyncResult asyncResult)
   at System.Web.Mvc.Async.AsyncControllerActionInvoker.AsyncInvocationWithFilters.<InvokeActionMethodFilterAsynchronouslyRecursive>b__3d()
   at System.Web.Mvc.Async.AsyncControllerActionInvoker.AsyncInvocationWithFilters.<>c__DisplayClass46.<InvokeActionMethodFilterAsynchronouslyRecursive>b__3f()
   at System.Web.Mvc.Async.AsyncControllerActionInvoker.AsyncInvocationWithFilters.<>c__DisplayClass46.<InvokeActionMethodFilterAsynchronouslyRecursive>b__3f()
   at System.Web.Mvc.Async.AsyncControllerActionInvoker.AsyncInvocationWithFilters.<>c__DisplayClass46.<InvokeActionMethodFilterAsynchronouslyRecursive>b__3f()
   at System.Web.Mvc.Async.AsyncControllerActionInvoker.AsyncInvocationWithFilters.<>c__DisplayClass46.<InvokeActionMethodFilterAsynchronouslyRecursive>b__3f()
   at System.Web.Mvc.Async.AsyncControllerActionInvoker.<>c__DisplayClass33.<BeginInvokeActionMethodWithFilters>b__32(IAsyncResult asyncResult)
   at System.Web.Mvc.Async.AsyncResultWrapper.WrappedAsyncResult`1.CallEndDelegate(IAsyncResult asyncResult)
   at System.Web.Mvc.Async.AsyncResultWrapper.WrappedAsyncResultBase`1.End()
   at System.Web.Mvc.Async.AsyncControllerActionInvoker.EndInvokeActionMethodWithFilters(IAsyncResult asyncResult)
   at System.Web.Mvc.Async.AsyncControllerActionInvoker.<>c__DisplayClass21.<>c__DisplayClass2b.<BeginInvokeAction>b__1c()
   at System.Web.Mvc.Async.AsyncControllerActionInvoker.<>c__DisplayClass21.<BeginInvokeAction>b__1e(IAsyncResult asyncResult)
DEBUG 2017-04-19 12:02:59,183 [7    ] Abp.Web.SignalR.Hubs.AbpCommonHub        - A client is connected: {"ConnectionId":"5a4855df-dd81-4582-b66a-039372bdb1bd","IpAddress":"::1","TenantId":1,"UserId":2,"ConnectTime":"2017-04-19T12:02:59.1707792+02:00","Properties":{}}
DEBUG 2017-04-19 12:02:59,261 [7    ] Abp.Web.SignalR.Hubs.AbpCommonHub        - A client is registered: 5a4855df-dd81-4582-b66a-039372bdb1bd
DEBUG 2017-04-19 12:03:12,621 [9    ] Abp.Web.SignalR.Hubs.AbpCommonHub        - A client is disconnected: 5a4855df-dd81-4582-b66a-039372bdb1bd
WARN  2017-04-19 12:04:32,804 [6    ] gement.Web.Controllers.AccountController - Login failed!
Abp.UI.UserFriendlyException: Login failed!
   at JJ.ProjectManagement.Web.Controllers.AccountController.<GetLoginResultAsync>d__11.MoveNext() in C:\Users\jerzy\Documents\Repositories\ProjectManagement\JJ.ProjectManagement.Web\Controllers\AccountController.cs:line 114
--- End of stack trace from previous location where exception was thrown ---
   at System.Runtime.CompilerServices.TaskAwaiter.ThrowForNonSuccess(Task task)
   at System.Runtime.CompilerServices.TaskAwaiter.HandleNonSuccessAndDebuggerNotification(Task task)
   at System.Runtime.CompilerServices.TaskAwaiter`1.GetResult()
   at JJ.ProjectManagement.Web.Controllers.AccountController.<Login>d__10.MoveNext() in C:\Users\jerzy\Documents\Repositories\ProjectManagement\JJ.ProjectManagement.Web\Controllers\AccountController.cs:line 84
--- End of stack trace from previous location where exception was thrown ---
   at System.Runtime.CompilerServices.TaskAwaiter.ThrowForNonSuccess(Task task)
   at System.Runtime.CompilerServices.TaskAwaiter.HandleNonSuccessAndDebuggerNotification(Task task)
   at System.Web.Mvc.Async.TaskAsyncActionDescriptor.EndExecute(IAsyncResult asyncResult)
   at System.Web.Mvc.Async.AsyncControllerActionInvoker.<>c__DisplayClass37.<BeginInvokeAsynchronousActionMethod>b__36(IAsyncResult asyncResult)
   at System.Web.Mvc.Async.AsyncResultWrapper.WrappedAsyncResult`1.CallEndDelegate(IAsyncResult asyncResult)
   at System.Web.Mvc.Async.AsyncResultWrapper.WrappedAsyncResultBase`1.End()
   at System.Web.Mvc.Async.AsyncControllerActionInvoker.EndInvokeActionMethod(IAsyncResult asyncResult)
   at System.Web.Mvc.Async.AsyncControllerActionInvoker.AsyncInvocationWithFilters.<InvokeActionMethodFilterAsynchronouslyRecursive>b__3d()
   at System.Web.Mvc.Async.AsyncControllerActionInvoker.AsyncInvocationWithFilters.<>c__DisplayClass46.<InvokeActionMethodFilterAsynchronouslyRecursive>b__3f()
   at System.Web.Mvc.Async.AsyncControllerActionInvoker.AsyncInvocationWithFilters.<>c__DisplayClass46.<InvokeActionMethodFilterAsynchronouslyRecursive>b__3f()
   at System.Web.Mvc.Async.AsyncControllerActionInvoker.AsyncInvocationWithFilters.<>c__DisplayClass46.<InvokeActionMethodFilterAsynchronouslyRecursive>b__3f()
   at System.Web.Mvc.Async.AsyncControllerActionInvoker.AsyncInvocationWithFilters.<>c__DisplayClass46.<InvokeActionMethodFilterAsynchronouslyRecursive>b__3f()
   at System.Web.Mvc.Async.AsyncControllerActionInvoker.<>c__DisplayClass33.<BeginInvokeActionMethodWithFilters>b__32(IAsyncResult asyncResult)
   at System.Web.Mvc.Async.AsyncResultWrapper.WrappedAsyncResult`1.CallEndDelegate(IAsyncResult asyncResult)
   at System.Web.Mvc.Async.AsyncResultWrapper.WrappedAsyncResultBase`1.End()
   at System.Web.Mvc.Async.AsyncControllerActionInvoker.EndInvokeActionMethodWithFilters(IAsyncResult asyncResult)
   at System.Web.Mvc.Async.AsyncControllerActionInvoker.<>c__DisplayClass21.<>c__DisplayClass2b.<BeginInvokeAction>b__1c()
   at System.Web.Mvc.Async.AsyncControllerActionInvoker.<>c__DisplayClass21.<BeginInvokeAction>b__1e(IAsyncResult asyncResult)
DEBUG 2017-04-19 12:06:24,514 [15   ] Abp.Web.SignalR.Hubs.AbpCommonHub        - A client is connected: {"ConnectionId":"bcf0f997-f0d0-48a2-bade-add4de33eb81","IpAddress":"::1","TenantId":1,"UserId":2,"ConnectTime":"2017-04-19T12:06:24.5141124+02:00","Properties":{}}
DEBUG 2017-04-19 12:06:24,528 [28   ] Abp.Web.SignalR.Hubs.AbpCommonHub        - A client is registered: bcf0f997-f0d0-48a2-bade-add4de33eb81
DEBUG 2017-04-19 12:08:51,143 [34   ] Abp.Web.SignalR.Hubs.AbpCommonHub        - A client is disconnected: bcf0f997-f0d0-48a2-bade-add4de33eb81
DEBUG 2017-04-19 12:08:52,712 [34   ] Abp.Web.SignalR.Hubs.AbpCommonHub        - A client is connected: {"ConnectionId":"30d06e48-e3a7-43d5-b787-b6f5d64d160e","IpAddress":"::1","TenantId":1,"UserId":2,"ConnectTime":"2017-04-19T12:08:52.7115148+02:00","Properties":{}}
DEBUG 2017-04-19 12:08:52,718 [28   ] Abp.Web.SignalR.Hubs.AbpCommonHub        - A client is registered: 30d06e48-e3a7-43d5-b787-b6f5d64d160e
WARN  2017-04-19 12:10:32,330 [28   ] Abp.Logging.LogHelper                    - Can not find 'ProjectName' in localization source 'ProjectManagement'!
WARN  2017-04-19 12:11:41,892 [39   ] Abp.Logging.LogHelper                    - Can not find 'DeleteProject' in localization source 'ProjectManagement'!
WARN  2017-04-19 12:21:00,125 [29   ] Abp.Logging.LogHelper                    - Can not find 'CreateOrEditIssue' in localization source 'ProjectManagement'!
DEBUG 2017-04-19 12:31:00,748 [42   ] Abp.Web.SignalR.Hubs.AbpCommonHub        - A client is disconnected: 30d06e48-e3a7-43d5-b787-b6f5d64d160e
DEBUG 2017-04-19 12:31:01,346 [18   ] Abp.Web.SignalR.Hubs.AbpCommonHub        - A client is connected: {"ConnectionId":"74a19a36-4aa6-4739-a0c8-c7de3a17efe1","IpAddress":"::1","TenantId":1,"UserId":2,"ConnectTime":"2017-04-19T12:31:01.3450132+02:00","Properties":{}}
DEBUG 2017-04-19 12:31:01,373 [42   ] Abp.Web.SignalR.Hubs.AbpCommonHub        - A client is registered: 74a19a36-4aa6-4739-a0c8-c7de3a17efe1
DEBUG 2017-04-19 12:31:42,843 [29   ] Abp.Web.SignalR.Hubs.AbpCommonHub        - A client is disconnected: 74a19a36-4aa6-4739-a0c8-c7de3a17efe1
DEBUG 2017-04-19 12:31:43,970 [29   ] Abp.Web.SignalR.Hubs.AbpCommonHub        - A client is connected: {"ConnectionId":"83ec26c2-f139-4d89-87df-39cb651e156f","IpAddress":"::1","TenantId":1,"UserId":2,"ConnectTime":"2017-04-19T12:31:43.9699626+02:00","Properties":{}}
DEBUG 2017-04-19 12:31:43,981 [13   ] Abp.Web.SignalR.Hubs.AbpCommonHub        - A client is registered: 83ec26c2-f139-4d89-87df-39cb651e156f
DEBUG 2017-04-19 12:37:04,576 [29   ] Abp.Web.SignalR.Hubs.AbpCommonHub        - A client is disconnected: 83ec26c2-f139-4d89-87df-39cb651e156f
